{
  "dbURI": "mongodb://mycoupons:121292@ds139939.mlab.com:39939/mycoupons",
  "sessionSecret": "GGWPSTROMCEPIRIT123",
  "cloudinary":{
    "cloud_name": "dvkpacxc2",
    "api_key": "516493564816823",
    "api_secret": "om_Owbv8NgZVvQLqNIR1ilEgVkU"
  }
}